{
  "fun": [
    ":ping_pong:",
    "🤔",
    "rolleyes:531258025177120768",
    "derpy:531873077420621837",
    "fluttershy_ghost:531255054854914068",
    "really:526733118124720128",
    "glimheart:526733341387653142",
    "twithinking:417312710988922881",
    "wink:417312711454490644",
    "flutter_puff_face:419466463292948481",
    "wannatalk:445243950702526474",
    "blub_Spike:470981015662362674",
    "ohhi:531188537429852180",
    "flutterroll:419466469357649931",
    "Scoot_Ball:446267923292618762",
    "hi_derpi:470731025589469204",
    "seriously:490712567329849354",
    "selfboop:518990019898245125",
    "thonk:488129715853590528",
    "dashie:518935992162582528",
    "derp:490734883921199124",
    "hmm:531252943719235594",
    "chaos_everywhere:518934899311509504",
    "amusing:518937901703364640",
    "Messaged:310657644274647051",
    "thinkEyes:439130054702661644",
    "saywhat:279657387231674368",
    "waitWhat:369079156752777218",
    "derp:404362640219963403",
    "oof:381513690358218754",
    "OMEGALUL:452564912737222666",
    "SmashBall:423544688369467393",
    "pick_MLP_twilightsparkle:417313463803838498",
    "Fluttershycut1:417313262359805962",
    "Fluttershycut2:417313261743112192",
    "Tut_11_Respawn_timer:372401506928033792",
    "icon_mrgreen:389447627235655682",
    "confusedblackguy:487485344774750228",
    "hmm:487513042947538944",
    "drama:487486402746122240",
    "appleliar:443462694029230080",
    "marshmallow:466093306149994496"
  ]
}